<?xml version="1.0" encoding="UTF-8" standalone="no"?>
<!--part of the matt icon theme by sixsixfive released under CC0 (https://creativecommons.org/publicdomain/zero/1.0/) on openclipart-->
<svg xmlns="http://www.w3.org/2000/svg" xmlns:xlink="http://www.w3.org/1999/xlink" viewBox="0 0 128 128">
 <defs id="0">
  <linearGradient id="2">
   <stop id="N" stop-color="#e85752"/>
   <stop offset="1" id="O" stop-color="#bf0303"/>
  </linearGradient>
  <linearGradient id="3">
   <stop id="P"/>
   <stop offset="1" id="Q" stop-opacity="0"/>
  </linearGradient>
  <linearGradient id="4">
   <stop id="R" stop-color="#eee"/>
   <stop offset="1" id="S" stop-color="#eee" stop-opacity="0"/>
  </linearGradient>
  <radialGradient xlink:href="#3" id="5" gradientUnits="userSpaceOnUse" gradientTransform="matrix(1,0,0,2.4630543e-2,0,117.42275)" cx="63.64" cy="120.39" r="61.81"/>
  <linearGradient xlink:href="#4" id="6" gradientUnits="userSpaceOnUse" y1="10.02" x2="0" y2="24.345"/>
  <linearGradient id="7">
   <stop id="T" stop-color="#eee"/>
   <stop offset="1" id="U" stop-color="#dcdcdc"/>
  </linearGradient>
  <radialGradient r="15.03" cy="51.39" cx="60.05" gradientTransform="matrix(-1.404511,1.1888571,-1,-1.1813958,199.73811,11.750541)" gradientUnits="userSpaceOnUse" id="8" xlink:href="#7"/>
  <linearGradient id="9">
   <stop id="V" stop-color="#bf0303"/>
   <stop id="W" offset="1" stop-color="#d20303"/>
  </linearGradient>
  <radialGradient xlink:href="#9" id="A" gradientUnits="userSpaceOnUse" gradientTransform="matrix(1.8921289,-1.9250759,1.1682323,1.1482384,-200.08266,153.61613)" cx="87.83" cy="104.2" r="56.842"/>
  <radialGradient xlink:href="#4" id="B" cx="64.7" cy="-15.174" r="55.27" gradientTransform="matrix(1.5330966,-3.1358239e-8,2.404893e-8,1.1240308,-33.828167,2.9909361)" gradientUnits="userSpaceOnUse"/>
  <radialGradient r="38.946" cy="148.57" cx="-64" gradientTransform="matrix(0.5353487,-0.7140729,0.764706,0.9803922,-143.34962,-215.12271)" gradientUnits="userSpaceOnUse" id="C" xlink:href="#7"/>
  <radialGradient id="D" cx="54.22" cy="37.673" r="56.734" gradientTransform="matrix(-0.5320236,0.4613919,-0.4885156,-0.5472225,112.60319,9.9276908)" gradientUnits="userSpaceOnUse" xlink:href="#F"/>
  <radialGradient id="E" gradientUnits="userSpaceOnUse" gradientTransform="matrix(1,0,0,8.641975e-2,0,107.20963)" cx="63.894" cy="117.35" r="53.91" xlink:href="#3"/>
  <linearGradient id="F">
   <stop id="X" stop-color="#2765b0"/>
   <stop id="Y" offset="1" stop-color="#0057ae"/>
  </linearGradient>
  <radialGradient xlink:href="#7" id="G" gradientUnits="userSpaceOnUse" gradientTransform="matrix(0.6291454,-0.8391833,0.8986877,1.1521636,-157.25221,-241.90275)" cx="-64" cy="148.57" r="38.946"/>
  <linearGradient xlink:href="#2" id="H" y1="7.828" x2="0" y2="115.73" gradientUnits="userSpaceOnUse"/>
 </defs>
 <g id="1">
  <path id="I" d="M 125.44621,120.38797 A 61.809662,1.5224055 0 1 1 1.826889,120.38797 A 61.809662,1.5224055 0 1 1 125.44621,120.38797 z" transform="matrix(1.1724137,0,0,3.4,-10.608364,-288.64103)" opacity="0.527" fill="url(#5)" stroke-linejoin="round" stroke-linecap="square" stroke-width="5.31"/>
  <rect id="J" width="119.49" height="119.49" x="4.255" y="2.146" fill="#9c0f0f" stroke-linejoin="round" stroke-linecap="square" stroke-width="0.51" rx="3.773"/>
  <path id="K" d="M 116.125,7.8905017 C 80.800352,8.7403047 45.450367,7.5513748 10.125,8.3905017 C 10.771733,44.166945 9.6151724,79.962684 10.59375,115.73425 C 46.327953,115.10107 82.101017,116.32261 117.84375,115.2655 C 117.02651,79.539255 118.83255,43.130076 117.0625,7.8280017 C 116.74909,7.8288372 116.43516,7.81815 116.125,7.8905017 z" fill="url(#H)" stroke-linejoin="round" stroke-linecap="square" stroke-width="0.51"/>
  <path id="L" d="M 12.46875,12.8125 C 12.519378,115.54695 12.553582,13.265022 12.90625,115.5 C 116.09559,114.96811 12.779821,115.48264 115.46875,115.0625 C 115.77986,12.3293 115.83354,115.09778 115.28125,12.875 C 12.177301,12.653006 114.58031,12.583712 12.46875,12.8125 z" transform="translate(-9.9800104e-8,-2.1094983)" opacity="0.459" fill="none" stroke="url(#6)" stroke-linejoin="round" stroke-linecap="square" stroke-width="5.31"/>
  <rect id="M" width="70" height="16.603" x="-99" y="-70.19" transform="scale(-1,-1)" fill="url(#G)" rx="3.953"/>
 </g>
</svg>
